{
  "config": {
    "apiKey": "AIzaSyCCx57SI2I_xx_e87hqUlcF0IPWN_X3S74",
    "authDomain": "todo-af06d.firebaseapp.com",
    "databaseURL": "https://todo-af06d.firebaseio.com",
    "projectId": "todo-af06d",
    "storageBucket": "todo-af06d.appspot.com",
    "messagingSenderId": "188001636877",
    "appId": "1:188001636877:web:c808a70374ba51af257b44"
  }
}
